<?xml version="1.0" encoding="UTF-8" standalone="no"?>
<!-- Created with Inkscape (http://www.inkscape.org/) -->

<svg
   xmlns:dc="http://purl.org/dc/elements/1.1/"
   xmlns:cc="http://creativecommons.org/ns#"
   xmlns:rdf="http://www.w3.org/1999/02/22-rdf-syntax-ns#"
   xmlns:svg="http://www.w3.org/2000/svg"
   xmlns="http://www.w3.org/2000/svg"
   xmlns:xlink="http://www.w3.org/1999/xlink"
   xmlns:sodipodi="http://sodipodi.sourceforge.net/DTD/sodipodi-0.dtd"
   xmlns:inkscape="http://www.inkscape.org/namespaces/inkscape"
   width="290"
   height="290"
   id="svg2"
   version="1.1"
   inkscape:version="0.48.4 r9939"
   sodipodi:docname="pawn_monochrome.svg"
   inkscape:export-filename="/mnt/ssd2/alex/projets/carcassonne/ressources/pawn.png"
   inkscape:export-xdpi="31.030001"
   inkscape:export-ydpi="31.030001">
  <defs
     id="defs4">
    <linearGradient
       id="linearGradient3826">
      <stop
         style="stop-color:#c5c5c5;stop-opacity:1;"
         offset="0"
         id="stop3828" />
      <stop
         style="stop-color:#656565;stop-opacity:1;"
         offset="1"
         id="stop3830" />
    </linearGradient>
    <linearGradient
       id="linearGradient3820">
      <stop
         id="stop3822"
         offset="0"
         style="stop-color:#e7e7e7;stop-opacity:1;" />
      <stop
         id="stop3824"
         offset="1"
         style="stop-color:#a8a8a8;stop-opacity:1;" />
    </linearGradient>
    <linearGradient
       id="linearGradient3793">
      <stop
         style="stop-color:#fd6a05;stop-opacity:1;"
         offset="0"
         id="stop3795" />
      <stop
         style="stop-color:#fd4f05;stop-opacity:1;"
         offset="1"
         id="stop3797" />
    </linearGradient>
    <linearGradient
       id="linearGradient3785">
      <stop
         style="stop-color:#fdc305;stop-opacity:1;"
         offset="0"
         id="stop3787" />
      <stop
         style="stop-color:#fd9505;stop-opacity:1;"
         offset="1"
         id="stop3789" />
    </linearGradient>
    <linearGradient
       inkscape:collect="always"
       xlink:href="#linearGradient3820"
       id="linearGradient3791"
       x1="470"
       y1="442.36218"
       x2="470"
       y2="607.36218"
       gradientUnits="userSpaceOnUse" />
    <linearGradient
       inkscape:collect="always"
       xlink:href="#linearGradient3826"
       id="linearGradient3799"
       x1="470"
       y1="492.36218"
       x2="470"
       y2="667.36218"
       gradientUnits="userSpaceOnUse" />
    <linearGradient
       inkscape:collect="always"
       xlink:href="#linearGradient3826"
       id="linearGradient3921"
       gradientUnits="userSpaceOnUse"
       x1="470"
       y1="492.36218"
       x2="470"
       y2="667.36218" />
    <linearGradient
       inkscape:collect="always"
       xlink:href="#linearGradient3820"
       id="linearGradient3923"
       gradientUnits="userSpaceOnUse"
       x1="470"
       y1="442.36218"
       x2="470"
       y2="607.36218" />
  </defs>
  <sodipodi:namedview
     id="base"
     pagecolor="#ffffff"
     bordercolor="#666666"
     borderopacity="1.0"
     inkscape:pageopacity="0.0"
     inkscape:pageshadow="2"
     inkscape:zoom="1.4"
     inkscape:cx="-3.3765514"
     inkscape:cy="180.45288"
     inkscape:document-units="px"
     inkscape:current-layer="layer1"
     showgrid="false"
     inkscape:window-width="1920"
     inkscape:window-height="1023"
     inkscape:window-x="-2"
     inkscape:window-y="-3"
     inkscape:window-maximized="1"
     fit-margin-top="0"
     fit-margin-left="0"
     fit-margin-right="0"
     fit-margin-bottom="0">
    <inkscape:grid
       type="xygrid"
       id="grid2996"
       empspacing="5"
       visible="true"
       enabled="true"
       snapvisiblegridlinesonly="true"
       originx="-339.5px"
       originy="-384.5px" />
  </sodipodi:namedview>
  <metadata
     id="metadata7">
    <rdf:RDF>
      <cc:Work
         rdf:about="">
        <dc:format>image/svg+xml</dc:format>
        <dc:type
           rdf:resource="http://purl.org/dc/dcmitype/StillImage" />
        <dc:title></dc:title>
      </cc:Work>
    </rdf:RDF>
  </metadata>
  <g
     inkscape:groupmode="layer"
     id="layer2"
     inkscape:label="Layer"
     style="display:none"
     transform="translate(-339.5,-377.86218)">
    <image
       y="350.30872"
       x="292.94678"
       id="image2993"
       xlink:href="data:image/png;base64,iVBORw0KGgoAAAANSUhEUgAAAGQAAABkCAYAAABw4pVUAAAABHNCSVQICAgIfAhkiAAAIABJREFU eJycvfmvJcl15/c5EZGZd31L7dVL9cqtSUkjjQwYsGzBMOQfxoYB/6n2DwMZHgxmTGGokShZGIkW 2aTIbvZS69vumpmxHP8QkXnvqypKsG8hK9/dI+Ps37NcSUkVAVFAAAUI5ayQPBgBsSAGxRAxAKTh LZoPkfzS4aZASof7cvTccHP65vNaPhPAmDffM7woCWgCHT53/PxYVhcRpPztynO2nH/XB7/xNf/s Lca87tevfXivGc5puJayIZpIKWJMc7TuwypfuxmQdPhbQVEQzWciYDCQL1gKYSQvIJEJHFSpjZA4 PH58hltrGR+QclbVsqGv3cou2UKU258bSSQMSiJvfyprTUg5m7eu5+1n/Wefb6xwxHO3l1iY3AJK QlUOTKeZWY29/T7RpAcmGCVkuJWvkttfqccvSoqqYtSgRhFx+fURogasrfN9NW+eIa9KBhHlcNa3 8OYoCkfcrREVLQyREB3OBhUQbL4wNfl9Wig+coWChHHz3jgnzW9R3n4WA2JA8z4gFhG5tY0CpKIq 5EhNpJSw9jZFMkHewoS3b6kcChqLjoqHTRo2T+S2jhn02Ntuqvkz5Z95za3Xv06MgUfTgYi/63Wa Zfnw99FNfCbI/9/bqFtt+bt8l8gtQmlZjwz6bfj61z4uqyw9PDv8OciExqyqLAmRBBqy4k4xE8W6 cr+8I5K/MKW8wIED9C2crxHo87cZd7TQsnGqRzL92kaOGxtfu/+aMkz/DLEl25nXNcDt1/wLzDIw YSrrTBRGtHntxiEyqCpDYcPxNrDKcHOHpw8XHI9eoEawYhDSgatTD6GDGGDfkkKg73tCCJkbjo6q qvLnFEIMjwMonpgyQYwxSBH3gaNV5U2OvnUz5TWvScUbUnAsScPf6e2v/f94M8ZQVRVVM8E4hzEV VDU0UzB1UX2FaaU4Q3rQiK87Am8Q5HVeMVLoqgmih/2atLuh36zoux03V1eEvqNtW0IIpJQQEUxR XcaYN4gx3E9ElECShDEOwWadPKoWM+pejldXNtOoQWON6O/wTUgoEQggsaimcpYIakEb0Pp3brj8 CxISki8EmVI1NZNmzmSxZHF2l8lsDtUE6glUM267M7zFowE30kpee3F5vVHNhPBb0n7N7uoF68sX bK9esd+t6fY7et/iW49PHovFVIba1mAh9pEkCUlCJN46J0kYl42mFQdiMVgQNxrl0PtspNFirBNq AqJl3bECLKZ4XCaZfFZIJiEp5e8ZCE8kmYBRJWExaUrCYVRIom+cLeatjw/nGCNiDda4fK4a5ssT lmd3mZ2cc//xe9jJAjNVqGaIqTFykJA3GECTzx6aQkxgrBvVZvCeygn4Pf7mJTevnnH59Ldcv/iG sN/iiITQk1IciW/yf5Agasw2yIAVi1hBVFDRrPlIJAGxFqOWkJTQR0JURAWxBlHFVIoQCKnHWcU1 kKJnv9+xmE1IKZGCEpMiahDjcKZCjCWGQN1MMQht7wm9xzihsg4VQ+iy7+lMBUYx2Cy5MUswSVBJ GOzovR0/riLYymFtRR8Sfd+DsTSzJc38hAeP3+Xu4yfcefw+TBaAI5kKGZyf17xJN+g1ETBkTpSi oirxhPWa9cVzrp59w/ryGe31K9r1Danf0qM4Zw5qKALGZO5PKbvDxuRYQgMaIJXXDs8nBGMdikVV MDHHF1ayb+r9DucMziZgi+83dH1PXcN0GunDGueEyWKCtQ5NFV0baPeBvlOMNBhzj8rNICasVEzc AhFL1+2xJgCJFLvirWcDLAhOIGgYlbmo5v3TVILhHAAoCTRhElgNpBiJ7YZeI99+2dK2Ld57lnce 0CzOsNMFUBWP/7acuJAUayxSDCspL5DkIXTsLp5x9c1vef71F+xuXoHfY5JHYkRIiLVo8ahk8K5E 8uJTQsTeim0E8uOqJJUSdCZ0DDAFI5qdCCKzmaELa7puRZIddR04O2t48OCM87s11XRC7SLONqha dlvP9WXg6jKwWUU2q57dNiK6pKnuUJk5sW1I0SHiELtGpT1IhJrsHInL58GRKfFT9vazhCSUqGkk CIAlQVJiFwl9Sxsu6fueGCMhBO5Zi502oENobUaXGMDFAiVYDEIoQZuH/Qq2N6ye/5bd5bf0qxdo u8EJVKLFS7W3PLK33UIIxe07HEMw5DCEVIIrADXZ3mggpoimDuug7y8Jes353ZrH755y/8GCk7MG FpG4fYV1PdgGkYr5tGJ+WvPo3TOin/H1lxu+/PUNq6uepl5ijGGzadE44eR0ThdWqMTR0YBISgIm oPE4YE0l8FM0KUljlnaEGCMpZYY2aI7MUySlHDC36ysunhmMMTRNQ9NUMDsBW/O63XZqIAApRWpJ gIfUoatXXL98yosvf0G/uUHbNU4DTpUc3CtiHRElqpCSFpc8h7laxDul8trXiJK9sBy/6JHrKQDJ o6kl6Z5nz54xW0QevzPng4/Ouf94ClVH6F7RXbwiyDX0HWAwxmJNQ+UWuOkSO1U++M4SUxl+++st u/Ur2k4Re4qxDa3f0YUWsX1xuw/qI8Twhts+/Evln6qgYvI1akREqKzBGXDGYAWcGFrfsrl6eev5 swcJFufZFZZbEjJYey3YUYJ2w/ryBS+/+SfWr76FvsVowBZDFEM84FUIodiD4w0f7MTwt75mvIaL P+aPvClKUk9Me2LasN2/4tF79/ngo3PuPazBXBL8DVE2GLdnOZ8CdTbsGtAUCOmGEDo0rZk17/Dh J2cY4/i7n37F6vKae+cfU1WW65sb6knEDG50ub5jG2eOkIfXY6xEhj9CAtFsf0mCOIMxihHBGogE 2j6yu7ngoq5pmoblfIZdLIHbLrcbADhrHEIEH2B9zeriOdfPv0XCHuIeSYpYm2MFlFQg2aBKHNBe DodqCYBKHHFMlCFyNSgit4klBpK2hLjHxzX3Hyx4/O4J53drktyw232Lq3dMFwJVzdWLHWIqrBVc VWEdVJXJAZcq2+0z5mcND96tuPeNYbO7YNMbomzBGVQqkgopRuQIbxrW1HvP67cDQQQf8n1T7IhG zQCGyQQ2xqBRcBhSv2d1+ZKmabhzfsbZnfs5RnkbQTLOFsDv6bc3tOtXdJsrHAEfPMEHgnU4Wx98 sRSwJoN3AyRmxBZ5yzam9/2tLzTGZM6xDmMUZ1LWxwWigUTQSIhburji8cMld+4b3LIj+TW22lNV kRQ87XbNcnaXhEUJqHpSiKgE1Dgg5Mg2vWRyfson31+w22/45qunoBUP73/Mdr1Hk0AKxFG1KtZm 1KDv+4MqM4VQOniWQvQ9xtiCIEZSCngS0RicCD4lxDgwjlgQjWtjWJ2fcnb3PjxY3obfXeHoFHZY Oghrbl5+xctvf4tvt+y7FhHF2Bo1QhBBMCMgqslnF9EM4F32VKSAeUYNzjmcc2PUHqMnBSXQ0+sW HzqqeokqOGcxTri+vGAfvuZ//qM/wzbXRP8KcRsmttgd72hMjbWR6PekFLKzYAyqBk1grYHaE9NL UnzFg/fv88n+nJ/+7X/mu+9/h6uLPbUIZsAyCqwiAjFkQmjyiDEY40AyvANCTIPKDdgUsVYwzmCk uiVh2nVYUVQjtRFsZbD9mvbqGXHzBHvWwmQ6Et3BgKkUBNe3hH6P+g6NAecKlCEGxKIISQvMTSIm XwCNApMNMHeBukPfQ4qIJnAFTpGEGEUM7NtI13X4XuhDJASPqXuu1y958vEZUnWI3YFdA/viLoNo nS8iRiR50JDlVuuMa2bFimoHzpOBgDnN1PLw8RnX6xXLaknlJK+NhJUcfaMpM21BtlOMpKCoGIRI EpNVt1FmdcWxX6+aiDGRSlpiMplgrSXFrAoNEUJH6vZ0uw2zW9DQLRsiECJ0HdvtlrbdoWPGrejN 5ElajHQxej4eqaTRWzqAfUYE1BNDRwyaCZgCqvnC6mqC0CA4rDXsdlsk7tjtNnz/+7+XN8zpwTlI KRtOzSqR6MeUyvFtuM6k2aXPiLIynTV8+tGH/OV/fIq7M2c6b1CJozMyqKPhOg2OoGWDBxtjDKbY iD7tMRy9P28WkvLOxd6DTUeYXP781fUlV68umH2io0MEJYOaM3Q5r9F3Hdv1hrZtcRpJMX9QKunb lEq0nTJXpRQOYOvRF44Ud668PvvuMRaCEEEdtppjaWjqKbYyiPbsww4jiQ+evIsxl8W+5YArr+cA Jt5yCEquQTRjWXlDBaMQVVEfaCrHhx+9x//xv/2c88UjuiZSCRjjsi1Qsm1ISkqKc2A0OzJD4kg0 YRREFUkpQ0FHaxARTIm1YozjOvOmR2JUvPe0bTsy9rhft9hKldD17Pd7uq7DOCGGHlRQY4tg5g3P cFTMqudoYzSV+yVk9H2HtYJ12QV0ThHJ3oeYKaETgrcIkUoSxoDvNswmltm8QokoHlWPpli+W0cb JZrtVBpzKAfGAMXaKnOsCn2/xxrl/r1TQtjgww7vK1QMxqQR5lGVnO7RLGJDysOYDOGrxhG/q+ua IU+vJT4rsgnAdFJjjBtDgLwnASuMweYtgoxedknyhhAIfUv0HowdPyiDwTa7qcWltMPb0CJgWpJk g5HMi88kcsCwgBK3xATRIini246235HYcL16yXsfnoD1xLBHxCMSUY2gIEnLfucMXU41FKiGVBLt ihGwWFLqs/rwHRWBqoFJE4l+SwhLVF3x/o6znZnxQgoYqzijGBcRSYh6wBNV2GwExeackTVYcVjn sAbEOKIPBAlEH7INUuh8T+Usk5vVmxJSMs4UXYSmSIz5UDXZ4OkhgTdmLBWSDPovZdfxtXyHqmJN hVFBki3i6gnR58ArCo1bYMjIadttELtltXrG48e/D3FDjNvs/UnI3DrmmWLOyJVkZYoJR8AIhHRI bCUy/O/qHBMZF0D3zOeK77fEICTNEIZgsdhifHNKQlN2XMR6VCNieozxiAlYHG0HSesMhhpDZRyx clTGgnWErieiJB/ImLHQBU9jDO1286aEjOo/ZoKYIqbZM7KQMhaV4iGdqiUgHDJ9UTUThIFog79u 8SFlV9YYDBZrHOBQo6gxbDbX1PWEqk7Q7xCzpd0rJ0tLu71Eqg6VHjFpLKmRQTUUT0ZjIkkgxpxj 0WRzfYmxpJBQk0AcjoAloHHNbBZp1zcoHao1qGDUECWjehhXjDUICY2BpAHjAsZErICxhsn5CTE5 ok/4mCWhbz19yjZnUjc5/6GZ+50xGFsxm06ZzSej1rhNkFQ2OyWsMey3O2azGW27KT60otk5PxLp TJDOd4UAxeANCGaB4FPSnIYPGecaMC5VEBMRekQ6rAVXbfntNz/j9Axubr5icvoOoYtARENWWZIk u6OEbMDFYq3FiAOJGbIwNgOVCqZpiCGwX11jzQRouXz1Fe+9e8KP/8MFd84usMZjTI2okGJOlFlb U1uHDz0pRKImKgvONThqUujpYsJZT9RQvCrFSTHsZEfIoLR9z6RqaPseRFARtqsblu0+x2ZH8Mxt oy4DqpULGMygDwBEsySoZF1eHk+qYPLGGONKpF5cxwjWVmMw2PeBmDyQy1+cTZyeOdrumu1+RdIb Hj6smJx4zs4rwvYV2C5DOhRVVSCaXCEXydaRTKyCSSkeKIUH3iMolVCeb1kuGj795AG+hxfPfsOk Pmc+WTKtl6A1faf4NrBqFUNFXddMbUVKkd26I2nAOUddZ5c4W9EcLGOG4M7mmrAUICaiCZBiqQER ovXEELIHeEQCJ4BFipEs1SQxoSHbEVJx22QA3fKXaEwklDDUChwVGgzIqYiw2+1omorJpKaZ5Hgg pkAILX3c8vw3X3B2p+aDDx/x4Xd+yIN3ZjSzAG4PriX2ATTmWrDiXanGQhRALaIxB7Yp5uCwlOQI idR7pEo4gagdhC31tOGTT+9z7+5dXDXh1eWKb75+xsunX7LbRgxTZs0d5otTUq+gQgyRdh/p2phj ptkCkYp2dwnSl3qAY0Q7359OpxgRqqrKaywEqZyjritevzkopVRDFU+M9H2L9x2x3WOHVAWGxJDt C6N3kKJml5MjX1sEZw2usjw6m9P1e/btc9b7HdbBYjHjwYNTTpanfPd7f8Z8KbhFBa4HNsS4ot/f 0Psti3lTkNQiHUrJaBacWgc/PyImlFqo7EDk/EVBYVE09sS0xtqKyfScSV2x71d8sBQ+/PAJwX/A zVXLt99c8NsvXvD0+W+Y2FNIc5w5ZTI94+zsLik6tpuWVy8vmM4SYnKuX6zBqEVFsrcnwm6T6HxP 7So6H8YCu6bq2W1Wb5QgubEuqBhzjZ7gPX3bEfueyhVTeqTnpDiySXK0WruaqrL5JaIoHWICxrZc 33yNdYHZ3HDvgeX8zpz7D864d/8OJ6cN4lqwHcQd+/0apaWZO6Ynjqk7Ja7WxZCT8+UlI8egtkyV z8SixiDndNxBvcVArlf22WvSFRINMQnTkxrCnr5LiIHlqeHT+ZwnT04IfcUvf/GU9U3g6uoFq27N zl9T2SXqKqZzZVLbohdKWYHKochCNH+3xuKKxyG0RPRYUb0mIce3LAE5A6YpQLLFoKdSRHTIoEkS NCbURlQhpkiILb1fE3UHsqeZwp37cz746C7vPbnL8u4MqgRxC/GK0K0gBsQEpjNgIqA9+80F6/Wa Oyd3CiGGgrthofk7RVOJdWJ5bMAeyvNk11Ul5LyHBU0dIa4JXvBXHjE61ldNJw0iFk2GGA0PHn3K zVXgq69u+OarFRcvn7PtLqirOdPZEg0Oo46hIjcmxlwJwHQ6zyqqqrK7XFRZXdfMJtM3CaKl/i0b JDNm85zLBQND+c0Bci5+86gqDL7r6dqcVBITmMyU89Mp8+WUP/nv/hBb7bF1i9gNwT8jtFuSdqQU WCwW9N2eEFoqa6lSBdYynQhNdUryubB7VIeqRRpiIcZQU0sJHPWQx1dyjk8DRiJiBkekx0hF7RpE JiWCVmKK9HGTUwlis61wM+4+XHL38SM++/13ePF8x9dfXfDNVy+4uXjFJD3EpOnIzBypbwDvPd57 6nqC937c3xAadrvNmwQJKSO9lhqoM6dYQVwW/xh8tveiqFpSNCU7l93QupnQhw7fr1BpOT11fPzx I77/2XucPjnHX3+LcXvEdMAeY1oqkyEXgyX5DdZEXG0xzhB9S7fpsdbSNAviYMClynCJDAUFgYjB SE+uFRlUwOD15PoAo4Phya65xphjSomYKhHbgLEVaiKWiGrIZbM24awQ4pq22yI01M0J7z2ZcX73 nEePEi+fdXz+X54R4wlGHWiFpArUFfe/5NtjhOALlF9qgAepfp0g4oqHFCrQKWCIYY/3N9iwY+Is T58+5cn7H/Pq1ZbK3CV6j4/XuCaQNHJ185TpLPKv/uhjfvQHT1gsE0mv0M1zqrro71B0qVqMTMBM wERUd7neKWYcDByNy5o09r7YAcUU3CelXAZqjGBMQtjl2AMydyoZ80o7VHP8nWH4/LyUAFA0ommL saWUJ2Y4YsjraFQ0ZbdUxKAaCW1bPCTh/feE99475QefvcP/+ed/zW6lpP2M1M64f+cJobeEPuLq CVoHot/jqqxNY/TMp8t8nem4wKLA76Od16pAz32G2mPLru15752HXLx8yt07H6DhhO12zen5KZfr L3j2/Gs+/u49/uCPPuH9D06pmzV9uEBkT+WGemCK9yOHCpNIMcoFpdWc/DUweh4ZSExlnzPeSglU k0iJ3FNpNjpKE5QunmMU26g5cs3JkSoU1Vs6R8SgagtsmW1WGvAxIElmBitDZrHDNnv+x//p9/jN L675v//yC6rGsVq/5OXTLU/e/YD9+gYkEGKXVb9xhBSZ7Ce0+/2bEnKrCCVl3D7XECVMSLT7jsVC uby5ppndZbfu6PsdrzZf06U9v/cHZ3znB/f54KMGU10Q9YZ61oNpiX5fiu8siC3dM8Om5DIaMwLb uUYrE6cQg+xO5vLGHNipDjVgZrQRheJlgwe0echnFLtz3DZBgWBEQAfoYjA6WuD0WOoDNNdrwZjI EsiOjhrqOmAmyg9++AQJls///iWryyumc0dM2VZmfivlUDbXY4kUV+x1guQisIFDc35jKOrCB87P z7lZr3nw6AG7dsWuMzQTuF7t+eEfzPjT/+EzbLOn81+zXb+kmQZO5nMwgbhfo6aAdeqysTXZ60ka SShOJgxlQIcKlUMOIaVUIDQpsQ9oSRjllHDx/tLw/mHDc5/UmBjSdFtC4Ja6MKokKWgyOW2XOFYn Je9RUGzRTKiQPPvVivOzmh/+60+pzZTPf/ac1WWi89fYphSRa8bHxFrwCeMOBem3CJK/PMfraBwl xIeIhIT3kevra+49esC2W4Od0qU93/3hCf/Nf/89pLoCu6GxHdVEUTx+92pkQ40xqwKGXEIaoRct myJykJD8vqHno+Q+0pCNK/58yWQO1ZGqUjKTOVYZ3nsLnlbN9bh6iJYzFKMjqgumrMWOAVx2EChu dRo9siHG8X7D+YOHtDdfU4nnO3/8CaKGn/z4H9juEvNZLkFKsVQ1asKHSNe3dN1bVBZoSZYAknX2 QBRC4OLyCozl5cvnRBWUSNdu+Dd//K85uWNZr16ifk1TC82iAdMQ2kAIuRSGZAA3RvNDWCllr1JK pTdRxpa0VJDcRMJIrmixmOzCpji2lKUBKS02ZSBajuYLE4xgZiGEZuMtA/1LjiU/nZ2ONKiXou6y 21+q77MeySCnSTQNkK6IakkeZqniw0/usN9/h3/7v/8Ca2+yE4PFpQQS8T7ifUfft9zq/gKMkJDj ckmyO6sxkSLU9YTlcslsNmM2nxBTyyffv897H53T+UuaaY6eu7bFb3cQwNkplTRImmHiDAkz8FO0 n6C+Bt+gscEkW2xqRFMo3tHtI6cBOKQEBsBziEMGvO340OF9KeNcqpiSbh3eOxySpByaDy01y5SS WvWIBkRD+c6Cl5HDgtrBxUWPMXtm88i3zz7HTTp+74+/x+IU+qD4sCckT9RD3ZeR+EazDjD0DjDa xBw8DQXEmTA3VzcsFieE0HOzCvzhv/o+mnZstxf0+y1T5ziZL6hMRdh2+G0PXiBYjE7QVKOpJkVL ihZNtugDk7N/42ZpBjZjKfWJZXXjRhUHTIs9HAz4oHrKfdFB4Ad1FQtBB/c4b/5gU4eUNMN3JUUK qGqKtAo6Jimzs5WlvN3D2aLk8GPL6WlF39/QbS/46OOavgfvIQRfXPZcHGhE39ry7eAIDtFA2+7Y bVck3zNtGmpXMZlMePrNMy6uejZ7aCqHkQ5Sl+ODkv0TA66UvBDJ5UI2LzzF4h0ZxZic8kWUFANG bFZNMeL7XAnpLLgKUsiF3Zo0ozfkYjLR/Bx6YKuMyekhcVWi+4FAiIybqyn7Z0YOmFeOg9IAcGd4 LwMFOa/uSqF4WWuKSlND8nk9N9crlrPHWHI1ZF05Li57zk5gOXds1xuqymOtZXOTWIbSX3mbIMVT KRBQZQRXGaQCZ4R22+barFSy4j1sblb0ux6LUIkD3+F9izGUgjELVZVdzhhKx1AiSiJ3vQ7tZUUq B+clKUNgPSC7aVBXQ4sDR2o3jaaP4ycyFx81Fw+u9gj7DC/NkcyQpMshizA0NStQz5vB2I3fqSIY HEYi+1VkMgE7mWFqMNHQdTv83rDb7aCUlc6aGbUhY1oFcbDFq3sLQcqjRnNtrM2c7RCiGCpxTGxD 73q0g/11S2oTp7MFXbeimc1gVuUiu+2abh9pqh43byD2IwyeC+RSQYXzFRuy+ENWBaYYWKOH+6N6 GuqvUob4jaaB6W95aYPhzpSRQwwyEHpQlShD63IOWtNBBRaB6lYdxuTP10IwLekoEcO0mRDbHvZK 31lmixk1M7Zt5OolbFcwn4CfJFLKhXIhBrzfs7q5fhN+z6wwKDPNaVUTScmT1DCtajQaJBhssqQu sl/1tKtEYy1NfZ+4WdFfXFNNBLdc4s4t9C1aoIZh/sMghWMMN3xrUTNFY+QgEPJGJkVNcVHRAeMe PaNDfDWo3aEU6FjaBu4evLvicmPKfgwLGjKmeaGiYMnDEGxVg5SwLWXCGAx0FbbLHbdVAvqG7cpz c9FzfQETB7WFykwIMSEpq0ujCaO3iQHjqJGDSCf1xNgT/Z4+KCFOSb2hb3voDTZE+lXk4ps1q8s1 77/3AdY9YDo5B/bEmzVptaWqBaknJO8LPJ43TwZVxEESUEFjzkaSMtNmz6qw/7BpQw3usOmpcDhH bD3kSihATNLD9SUZpSS/Jb3udeb3DXXKgDOlFN0XBCGBSlUQ5Zr+Wqnnd2B5QvXqiqe/vuLrry/o w4Kh/yn10O0ibdtSVyAmUDmoXfU2lfW6Wcl5kOB76CC1ERsbJBpqaZgYj00N64sXbNuWF1/9mseP 3uW9D+7B4hwbrkj+KpdnOgdhW/yT0jyomhm2xHmCIcVSapmOiZRz1GkgjMgoPeOCExn8OUoLDPFN xsz04GmlrCMPKYRMshQPZZwDdXKHcFZjSRPBB6LmTGTlplRVTa4rmlNP5rAVdi8u+NVvvuD585ab FZzdndK47IW1NWykpe86Uq00TYZnzFu4IUtIcSWRYU1pZEArhso6QrL0PmAi1EywqSLs4etfez7/ +y+YL7/gw09P+P4P32Py8GOIK3aXr2iaJSoBJDAoBDQXOqAxqwFSqVAZMcLCwmbk/EOtF5QhI+Uz 8mtyjXQqXhSHTR65reRUyrVmr4qRmAOGRoFf8mcYsBVGDJoMxk7ANRCFbtXSbzxxHXj25SXfPH/F s+dgG5hOYeKWGL1hPkksZlNOFmf4qqVuFOd6mjowbao3xMGVLRpZTsRiqSjZWOrG4pKh61q225bV FkJIOHuHiYvMTUKcob1Z8Xf/acXf/OT/4f4D+PS7M9598pjp+QyVFswecR1i+pK+LMV1VopfX4x4 hnsLOjt4RUM9WDoQbOTyt9+OC5jH++k1KVIzdsIqoUTvxSUn50/i3kDW1lBWAAAgAElEQVSa4mQG MiW1kZcvL/jii0tefgubVxC7Mh/AwHLmMNUMGyuSzzXAFqWykFwOOkPoiaFnvV6/KSHlu0Fa0I7U 12iY48ycZtIzqyva7ZblecP1DqZncNNveXz6Ib/+5RVmq4TdBhKcNlmSu1fw0y93/Lj7J975oOLO w4r3vzvlyXemMBW0vSFGqBYV7EpB91iRCLmtLfeKC0IqjaNWTEZxh94McWgI44ZnhHioPdYcByVB TM6DpJDTunaomwqKaIVxJoOhg7NpyPmQHpy5z9WzwO7S8Muffc5uk7h+CdMZ7Lcwm8LFJUwfwGTq uPo28O4HS6w0pD57y2JbbLXDapfLUq3BVRMWJydvEgSgsmT1UVmqapJ7uu2Myghtu6ftIrYKVJOs YZ6+eM69R4+5f/9T2u4CTEXrX7DZ58V1HiYTuLM85eU3N3zxhWfnd5zdW3JS9UgFVQN+5amMLdKQ RpRcygglgTIMAIw9xAbHCZ2cgDvc1zdUnB4CRop9GoyTZm/pVvl+8QKFvJndpsPGJX/5f/2Cbg0m wNRZ9i8jrs73z05hVs3Yt7m4oq6WhBZWNyWEieBDS9fvswstucBmu90zIiXD9QBjpyyhJ4QeH3q8 7/C+I4RDmnE+h+kEnj1b880337A8PWHT7dnsWzqfxfb8HpzeBTWG6/WKKLnLdzqDxXKKxtKzV2VY 4RBZ54ctR57XYNtKXJbS+EexOUNNsRnPB2k5VFMOmz/MoGEMCilQe5ZQU75rQFoQxbrE/LQmAOs9 RANRDEGhmjT00dAFuF73pFRz995DjJnw7dMLnj/LmYGYwPcJ30PwOXnqe/D9mzo3t15QKhFjxPse 7z1d19F1uRmmZFQxBuoari7h889/zZdff8X5/XvY2YRthJsdbFoI6jD1FDepSAI/+BH8/h+9i7m7 ACeEHmgDTT349LcXlvMnw9/l/Nrax+L3o9uxBzXYjNFmjo+XN46vLYFFOUlkZISoipsa7KTnT//s I5Z3QCq42XqkrohM8TohUYObsDi9j5ss+eWvfss//Ow5CaibwS7mRtSqqqico6ocdd3wuoQ4yHAH iaKyqtyb3TS4FAltwLqshto2b5D38MUXsL3+BZ99eJfaCLM7D4gxsl7t2WxbRHqamXJzAx9+ep+T h0vYPUWJpAT7VWI6rYldKFIyxCmlNlgjohmAy17vAIenUcMMzXPZZpRk1BDVxyGCL1KR5ACxJBmD zgy56xjNqww1VZlRE1s22y2PfvQHPPj73/Dz/wKLCRizpIsVpqpYLnPb2qYNPPv6N/zTbzo6D++8 B4tlRTWpsabCOaV2eeCfiOLcm1OIHORqxdyMkrNzzhm0MlSpwqRE7VwZ15eYzeD8HF6+gm+fw8Xz C85O4PFjx917D1me38FO9+zbFZ4Vj57A4/fPwezZrG5YnAl1pWwuIJpUkkYH129MHDEE3JLzNXqk 6tPR88BQojRIiRSUfcS55BDZZxwrG5Ic82ihnGNEFSX3rKgmkJ5AB+Eln/zgPj//xUvuv/uI1WVF 8IY+bvH7jsvLS77+JtD3MJnD+X1YLifMljPE5JZBU/oMs7qNY3fVLYIo5ILgUhkSQhhriTR1zCYV kpS6rrEu++P1JDCZ5gCo3cHFDp7/PDCffcO9s4bT0znzZc1sPuGP/+sHnN5xIFdYV9RFMtQukfyw 2VJs6dHIS80Nlmgu2hYDgxs0QlMKODNyvqYsGQNkcpi0aopEpGxHSsGFGSSIBEMZj5osNEKGNqRj eWrZb7/lnQ8f8d0fXfHy22uuNw27rbL3K1oPNzew38PZGbzzXs38ZE7vO6ralBa+UpqEoPgMJ72l etEJWa/l4SrkyQShp+97UkpMK8X3PWJrmmZKDGCrhslszuJkz9X1jn0H7Ro2a/jFrzuc67hzH+4/ hP/1o3t08TlN2FFXsFuDNYnGTbMtjX0R4dvZmuzlyBgXaIHBRwkZJGaQFs35jcQgBQfC8Npnj5iV lqeKEyHRglrECEOd126fWJwY2m7DbOr57mcf8ud//itMbLm6AKpczXrvDjz5KH+m154QHfN5g+JJ 6lENqIbcMFpk2zl7uICBIFBUligYQ11GP2hdI96z2/V5bFHfk3Y9qCXhxrqI+anF9JHlcsbkxhP6 bBN+8yX8m//lBFd3iO0IMddJubKJocsN9ymlPBa4UEHDqOjHRevQi5cOhnxEm2IpXtDBGEsB8Mpr qnqUDqMmF1jEQ5OMDAXoCVCLqiX67HIZC00FwQfqxnCzesHZvQ/5zmfwd38N5w/BVnByVhjAwOnp lJQCSfdMZhN26y0xBpomp56iesSWGSr2LRJy+DNj4rnUMbcoG7UQ4ljSm8cJ2cKgeeJbM1/gWqXf Wc7OG0jKixfX/MmfwqffewRsENoDqDgAiEJp3jxw+GFU8AG+yNyeddTr2OgAQCqD61wCwkGCxo0+ ouSQAxEpo5eG12SREjW5L6as1VYgFroucXLWEFrhR79/h+vLS3wHixPL2fkJAwbYNDW+b9nvPe3u hqrOfr91cXSl81eForLeBr8PHaylOOwwRknKzMXcPKlY0FywoJInw4kITS1oB7Plghh2vLqCP/lv 3+fhwwb0CjQ3zWg86HaheFGDupCxHC3DKCX/MBoLZWwNy2ssYHCpOhkwKh29qPLCyChwmjJxDy70 kVtc8urDHGDIHp4kSCGDhPMl+G7H9z97wvNne379q1xMPpk4jEDXRYx4mip/j5FIXaYJWaPEoxg0 lQqc128lH+JKyJvbgYf5TxkP4pCMLyw7lLapCG23R0yFc5bJJLFZ3/De+/D++3N8eEldbXOOE5vR 3Zh1ixFgHHwsI8YEoCUIkQK5a8ltjPmUQidTuDuRxr70sdRn+KzBkznCsQZaZOM+xCAF7ERKcUR2 uqTOWJUT6HdbUqw5PT/l409PefZsTwyR4FusE3y/o98n6goqJxmi0XAr8Vb4rzRJGQ5ezBFBzJDC UyHGXIsVQhx7GLK9iGCy6Eel1O9B8h5TgTNK6K7xfeCP/6tTZtMdMV6C6zNnply2nyF2DyYOE8vH HEYqnJ/rsHJMoCUXMlYoHgeMRUIEU/LhMuY8xpRb8cxG9XhrUHwa50LnWl9KBU6WFFGy+vTKyQI2 +5a68ljZ8OSjBV99BV/+0zCbsqF2ll2X8BHstExJsnk+vDkA14gBI1XO578tMCxsmTe7tESnUsjm Q7nGoRkneSJDH0R+qxFP33fstrBYwHe++wDkJZMmEMPgyVhINcSEUPLpQ1sthxghNwENm0jp2jra x4EYAwXhgFeNzx+prPL8COMPffclCBxjwiGopMDOgzS1SvQg4lAfkKrH99ecni756JMzvvj8mu2q xWiirhyN86PDUYpnSCEroRHSF1O8iTfH2w5VMWXl+aOk9AlaWwZCytEmlIsoVTW5IE6yeMcAn36n Yj5PpLjC2jRurEQD0RZ/f/i+YcPkEFcMeFOh0rivx48fbz4DrJLj9sF9lnIdB6qUkD+VNuo09JYc bP5Q+jR0iJEgtlndhH3IHle/J+qOEG94/HjBvbt5iu5m3RP73LpRG6Fxde7ILWs2UmFt7u41kkfb JiyvD3I+ulfm5ppsgKy1OFdTVdw6nMvTw8skJACapmHSZOn44WfvY3SLIWE1ayYTOfri8epHophi lPVIWmSs27rF7OPbD++vsqLXMgJBIlaGvj9Aa4zWB8RXih5XQUMGJY8/f/QhjlTjpIHQQ7NYIinS WCXurzlfOH742UPu3cuv9UmJyRJKpWaSLAzOgLNCZSqcqbDkAFTS8YUVgihlY4MFM6OpDEl7qqpC faZwyAEmdQNNtcSaCc7ApLFMJxNUDC8u4XufQVNvqKs9lQAdNIAN5ElDkqkTNOtZHyH2Q14iG04n g75VYlRiACc1Eg3J59IkIXMlCWy1xPsZKU3QZLFlVneeASmIbxA/zVJqKaOPyH30scpEPyJE4iD9 scQyGnOhgq52TEQw3jOzBuNXfPJpQz0D42C9i3hZIJM73PQdyztT3CynGmqTqIAKQ2Md08oxad6i ssapQWUlKYXcY1gAYCkT4mKfwcW2zfNwg4cUI8YYXr3a8u478NGHD6jrQIpbagu+K5ys5apSadoR PXaYRkDxqKL1AH+IJXqIMc8wxLg8RcEAYol+xnpl+Hf/boW1p+x3YCeFiaoKTQ5Vm1O7euQxIgep gluqeUSYRcpvCmRnYRyHGwMmRSTtcHbDx5/AvoV6YtjsdgQ1BFWut3tiBtHxPuD7nrD39HuPb/f0 bcfretjcdrv0gKyWwzk3/sBBjBBDzmOb0mhjXeJmBR9/vOTRoweIKL4LWTQ42vUB8i4tBSIHz+P2 fJSj1WhuOfChJ8ZhZlbChwxraarpw5xf/uqGf//v4evfekRPIcwyRhYLdXM1xBiPmATmLUP4DwQ5 zL5SZRxGNrRHHB/WKe8/ecDZOXifsBa2uw3TyZzdtsxeFMbpEsN1jZz32i1PdR3cgjK08XA4rHE4 J5iq2I2qzrNJqhprhb5rWSzgyZMHpNgSQ8eQ76qO5jvmGGGoVs/cnx23Q0p2kArVw1pzNX4hnrGl eZ9iQxZsVg1/9VeB58/hxz++wtp36XZTXL2k27c5IiZkmpTAWEY3nNHlPpaK4+N33VQVJVHZxHRi +L0fLdlsYb6o2GzWTCazsVAkgwU5tEilalEKQ79BkMGxGaoMhhbjPP40se89wWfENUfLLvc7qKXv E9cr+OhDuHd3xnZziXVCXUPYcXBr9YgrbvPkQTqS3PK2hiOmDDk4l5kk+MxAVTVHdcnnv7zmZ/+Q teFf/xS+/hqsewdlmt1O6XLcA5lDB6Lkby/F3UASDPnHAGT0yAQrNs+tV/OWI4H2qG759NN3OD2B fbsDgfV6ixHYbGC7LaMM20jf9/TB0/Y9fejeThAgX1HMvwHSB08XPH3fs9v27Dro++Ho6TvPft+y Xmfj+unHZ0wmitDT1AbnhLYF2nzxaYBgtZSIqimSMEhHOQ8eT4FBht+Pybhn7lVXhElzitgzrlfC T3/6FestbFt49Qr+4i9+jbEP2G2FyWSKEvIo8QL7Ey3DUAHDMBvxoDZfHy/1z0qIKim0OJuYTpQf /KDh8hKaCbx6uSNFV1K1EIMlas5C3upSe50ghRr50Egkjj2GMZYgisytIZCbTWKg75W2g3cewbuP 52hYs5jXJO9JPjcBDZt7wPWUoRd+wJxe34RDDFLeYg9LTUlAJ1i7pNsYfvmLF/zj50ozc/QRug7+ 9m9avv26Y986jJsQKRlGTSX4zW3LOdPfj0MgsoLQtx6UEtDh73zkktAYFEtLShs+/eQxzTTzdj2F 3gPSYGyFcQ22qnHOjYZlUNW3CGIO15s3i2FqQvZ8mqahrrM7mRtlLXkaQd7oJ0/g5MTR9yuaqaXd tXRt9t3FDdJRbkVnmtKaPEhHebLcN6OEoId4R1MeWhxjRYxzLi8TP/98zeU1TOePAOh6eP4SPv/V S1KaEkJJE8Cokg+hVywq+nbc8YYEjAGkjtKUBiYrajz0EWN6FgvDu+/CdgcPHz4gRYNQg9SIqcv8 XikufSSk+AaWZdLQnCMWXJ49NbS0xQTWVfR9HuSVCz4ydt71OS750Wfv0e+vqGwgtBuaRqhczrv7 PQwIbEpK8n12G63NY5yi3pq5Pl5kOTRmlThME4ne4MwJN5eJ3i/5y59kogetwNQ084q2h3/757+g 7Sf41BBjwcgsaAx0u13+4Crhu9wBZSXX8Iqtc7YpSYbhbT3+nQ8Zuqgx5OskwGJh2W0uaOrAH/3h Y25W8OrVy9yHpRaVksWybiwvTsgYUryFIIXsWKytsHVN3UyZTGYY46jqZvhdyeKGdqQEd+6AtR5j eiwhdx2VHxZ8veN30NMH9npjKfk4Aq2MZumuJ3n6jjUzel9h5Jy/+PHPi7F3rNsdUdNYk319Db/8 5Uv2u5qkuYHIl6XlOcSJoU74ICEj54wu7dvWeQtGSgX2D5HGgdIyX1juP4SuL9KFxQdl1+7ZbDbs 9/vccu4qJs30TejE4BgHuySl95Gu9bRtx27fsdm1uSvXl2DbKF3XIg4+/uSMyinOhAwYavZY0pB7 GC7giChp7PMzt9zLYar84OkYji48KODwvaF25zx9uucvf5Lti3UNq80VgUDEg4HLS/jbnz7n5dOI cIZCQajBVmZALcc15R9rS7fsQz6GcbAwzPMe+lVy000uXKCHpjaodpyeN3z0cQ4Uk2avynufh4uW kbrihKaeUk8Wb2XLfCpXnxL5p4d8yoUOqjh3+BmkRKTrcmPPh0/ewdmAM6XNeZjofGw3jjggl34d uE9Kb+0BmBr5EEoiST1sN5HZ9JToK4xZ8jd/8zn7DdRW8Elpux5TQz/A3Ak+/0f45ecrSOc4d4aI KTm47IuHUKCUNArGoJOH02sG8C03NfnXD/o8SzH4HdOJ4cOP7tB7iJowlcNVuRSonlbYOv8QzL71 bDZDbHBEkBFE1VzpXVcN08mc2WzBYrFkMpnRNFOaxuBcTl61Pl/46ekJpgx4KZNzkVRmiVAhuFsg HQyubLqN39/iD5Pd0/JUCMWwS81sesqXv3nBP/xDx2IOcELXeoyF2WKM8ZhNYHUNP//ZNavLBjjD 1SclqWaIQJ84/GzHsAlRx183GB/7lw4zIYUCswQP4nlw/zRfRoKmqctoJkgpM/NuC+v1npvrt0wD OkA7h5GrMSZSSKQ+EvuWfesxLtF56HaBmHJp6GTqoA1gS2JHs8pJOnhPQkp9aYDRscJj4EgxxeVl 8PkVKRHtEDSmCJOzMzY3LWKF//yTf2S3gdpO2Ld52s58AScnsIqQOqjqOand8s2Xic8/v2Q2m3F+ PiXppgzMMORUbQEPOdiR103HcW3woa8ESKn0oLjihOSUb/BbJtNTqhpaD6vNDaGPTDqP7wGbhXRS N8xmJ7zuZt0ucoiK95Gu8+h+j+laDNnbmi0zt+52ecGTiS3VFWE0kFKG1A/6VURK56wUbjzCqzTr 6fxLZ5DHawz+Zz5yBi8zS99HPv/lL/jNr6GpoW8r9vtE3dRUy8TyJKI+st5B8MJ88pB2e8Hf/tVT 3nn8LssTRwyKc4KYGmQ/2riRBfToKMvNWd0jZhogncHIlTyQS4mmFnbdHmRO0+SyKAn5962G3zSo qrz++fyExXL5hoQMU/lyNGNS9s5qQzVz1NOa8/NzFlPLbFIzcRBSUQ1G2OxbQso2Vyk/bmUEjAzI Q/F+dHRPYnk8SCRynCDKhWOR0gKnoMmiTPBrizF3+MlPOroAtrJ4hc7vmE5gMVEWk5plUVv7bkM1 sSRj+cdfwcuLRN8tCeEUTQuczjFaYVIFYsa1JnN0LnUfUX73gQp4Swo1GisqNyf4DOtXDroWmrpm NnMszxxnufONqi6qv/VveFmuKqg4FSA9ZhKp50r0Ab/bs28t/a5idaMYN0G0ZdtCrwLVhKo6I4VX dBEwA3yfx8BWVR4S4DXSx8xltspzSVTLRNM4/LpyKFIGagS0IjGlmT4m9HP+w3/8G776pvxgpkxY xw1mqtw9hWkDtbXUywW8t+fqMrKO33Jyathew3/666dUVcVn3/uY2kT8/gKXFHGBLu1yuzaUfpQc Mhhj8CIEc6id0qJIBim3MWH7mkm9wNjEZrdHdMF2U3H1Es4WU5xZcOfOBPiaWHJL2y0s5zHDOEc/ swTgxtHdoQO/+39LO7cnN47rjP/6NoMZLIBdUBTJiKQkSqJlOVEsR1HKfnCe8mcnVUnlJSlXucqy E0m+SI5IUSK5dwBz60seTg+AXdOkVZ4tFLaAXaDRB919Lt/5PtCKoGHdrLEKVqsVxlei/VdobN8S A5yfDzz6+hnlazWlOqR0E1xRAHK4RR/AKwoVCbnzKQEmZbdzbC9WVnBQakB4dUf3p0SlKadPFY+e HPPtN/lhNOerNU0OTB0em8CEQEoGbQLaSNyx6SPL1+H8Aj77/DnLgyWz+3OchdQp6D3OHWRggxhl q26gdJZM2QezXfW6jC7R1RyiJ/mGZrVikxLNOtGswOrIrBQcgXGCK6srIURwdsrtO3fZLztDVmlz GlmDpuJgtmS+uMXq8VPKicb3Awd1SWFLEoFuMKwLQYxsTgO/+uI5JZ6J85R1iVGa3g+ZfB4pepEE kajFl0+ZPThkuI3SYhDNIB5vdrJiqjD2kF/97xMe/R9MCogYui5STmB5ZJjVFucS2pXYaJlPIXQr mka+8VbB0yfQrzZM+A2Xz4/Q/pI+U+AmNSFtizejQdLWMDHGrTe2n5JXKmFSg43HDGGNL+FsADe9 JGqP34AtO1yKJO8xTrEZEmUFyUAXYHa0REiod0JqNiEToJIFPaGe3eL27Xd58tnvMUqhJwbnFCq1 tE0jYLAIhQJHxelpoGl7QmhzEGi2HFXGGIbB7/x6du7v+JjPqBYznqywJV4INBwtax79UZTxpnXJ ReOJAWZzzeHRAVUVcSqCNYRoOZhO8T4R4xrJhFumtWdSwMXZwO+6pwyNuN/1BIa+hdhux7ari+y5 xXvP6e0ECj6tMBL/xAo6BYe3pAXhYALTSUkcGtKQULXCD4l2EGU75yqObt1hlPferpA+5XM4BkmE mTnL194GPWfVnGGHHkJLGiLNBlYXklWNLaRuYLmYEHRP246TLu6kgCXCFiA2upNjUjIqybcqXZEQ duqUBunYBUiWpBx9XzMpzlBWkyi5vOzwHialkOWnOMgZ4LOWYjJYLZ5eDInLC8+NuWV5NEFraNoV JmVZiJg9LHN10vfrRvuPac0VrhaVxH2NQ0fU4tyYCMprUgs+igaLUw5rDEUZSRpsseD1Nx7wN2++ jehajbm8hDWjXrQ2oCowC+7d/YDla/c5/rpB6Ua2FgOTCqYDQsYVwSZD07QSr4TdwMdUfVDiuo7G 2DfIlp4295HJmTbqqSsSjpQczSZh7QE+Ji7WHV0HkxqmByXOgSZkgsyBFBNGF5SFoa4cfujZrKEu PZtmQEfNrCgpnILQcbFKlE6+kC8yBuzS4eO4R3zymBJaN55OMjaSOPQW5dM2uVxXjtl0imfAVQOt Mthyzu0HD1HTBZhrK0SNyUVjxdezh9x778e8/fAj/OaSuAbtT3EECiHCYWjBKXC2ZoMj0grOVyMd r2LurTSpnAfjW5ptkktpD7rdBWjjtpYUKVkUim7oCSmy2TSsW09RwGyuOKhLyjJQhITRkjfSWov0 nbFAlSE4vYQLPmLrGltaFAkfNElvGCsAOo99FxPm2v/WIpkkbfzJbm+MjkCLNhGnoHRz6nLB4uBr prXFGYMxmvPNALOSoErK6Q3uvfd3JDdBZQrErUFgoBt6oMCpUlbJ6w+4c+8h3339W878CT5q0Q1P Eoc0ndy8NxT1AW3s8U0noIQMxMZKenkYBum5zMX7rfCWFsxuxBM10oKW81Dj4wGHqybodqAL0rY8 qaCcWFJsSVF4WbRBUO8I85wxwkrtg+HyPKNl3CDNmkHR9A0WTT1dEIaNaOFm2Yid5F2OzMctRcVr tfYIWCblHONLUB2d37BaRVLccHqKcL27FtsZji8Ci/kcWx1xeOs+937099LPcC0FbxOeiSuwlNAn cfRDx/sffkLyl/znv31DN5wjCHbYyHbNZQOfffkVNxcKXTqMdVJ0GbG0SqOVJejc3qA1MaRciczt AKNKNZEtdXsct6sSrQrKesrlN9/x9BiKGpZLy+xwgrKBmBqSkrSYMdKc7+PAMASUMVS1Zr6A02M4 W8HRsudwukRZxdA2bIaILZzI4I3uruHKxPs4KrDZPOa955PhYtWJNF4x4WjxGr0f+PXnX1IvZNUN CgZtmR4d8u1Jy50f3uInP/sXmCzkG+h2Cglaa2zEs+VDtEp8slRR3bzN3YcfcOOLBwxxxeXJBmcN i5uW3m94/i1899/P+ejDCdYGSlNiihKrbCaj18Sk2XSChbHKkpSwc0Yj6G9tIjpOIA0knXmetSYp YdlOquQPj77h9LJDF1IWxUR8alFpwGpJc2skFa90IKlAiKILpbTBlnLmEKH1LZu+wxlLMZvhnKFp N4wUhypX4XauraIorZyxoxvMziXWSTG/OSeFyOn6mNMnzzg59zx7DiS4cVMxu3mL3kC0Fffu3+GD f/hn7r3zIcxuQJpwPdur2nSZiIZCV4xxmWyha7h8zBe/+Fd+88t/59e//A9WJ8dUuiANcPF8w/os srkYK25kmL0cbiqXFaqSHJFnsHsuNYyHo86eTsz5MGRrzjAZmcw+iGTs4kbJdKbRrkfZQOkgtfKe KrvNSWlQlqgsCcPF+YaLs8DZKfQNuyxtfrtJeT3cu3r9SV/m3qFvcnmABOteQrmykm31xk3D/Tff ok+JZB3Le2/wwcc/5YN/+jkHb/8Q3JIhClHD/mtai2MYmw9HTyImaR2a3eDhJz+nmJb0ET79xX9x 8uwZBkO1fJ3F0nBxckLoB7rsbfhctrZ6t+Ciz+XnHK0nJQm54KEuS8moRk/cm6mUJ7gJQtcxOZhQ ViXaivyQzga1Y70p3ySuSiTE7ZsfzihKj5usODuDbrMDr6UkY7gKnb/qae14GXf3WzxGkqx3SpA8 uAoOlg7jKtCW49ajXMEbb7zJ337yM3708U+p7j4EpoKstMX1ZC9WY1AxEVTAKiM7Fpn1LRVQ3+Ct 9/8RZadM57f4/NNPef7NE9YXl1w0lxwuHX3XClLRZyYGJ1hYZRVxSNjcOYWG0mm0tQLZChO6TUUK BTG2hNQjmoWRkQavmkzRJlKUBuUUUYv6JmmQoHJQmZFOPCyUImkl0b5OtH2H1pbJQcVMNdQHUvY1 2kGUjuNxNe7HG0CO1NMVQ8S0+10lyTYZJ587WQfVnOAmmKJEzRe884P3ef/DH/PhT36KfeMtsDPA oYopmZz76vchpZS6ocdkCezdqowwdIRugzEB2hXHj/7A17/9nKAXwjsAAAMoSURBVN9/8T989bvP ef74S+bFQGgv6Loe74e9DyKVwbqebn8fpRqM0VLBSwXdphKZuzgQYpc7VsMW51uWlWiUEDAqoE1A 0aFyXVznLUOouyXkVwaU0UStMMahjCUlxdALZ64IRwrBzXQCMIIt0ha1OXpWQ5bvHrPRMcYrq+Rw uqCsFzTecrrpGXRJebDgzv27vPXgXT76+BNu330TffM+qIIYC3Q9x2djWK4bJKYUYkJnY8QUtwKL MQw5go/S19VeEi6OOXv2mG8ff8XF08ec/PFLhvU5q9WGtt3gvc+t1QIGK0q7hdP43AcvNEsajGIy qwjJk2KfaQV93io0KoqSgk5m25+oEVeXNECAklLQhiOS2kAyKW9bcHpxTkzi6Vlb5CqmLAUjFSXp rlJKVEuv5atc9oJGg1zBkanI6ekJs6Mb6HKJquYcvn6XW28+4MEP3uOtd99B1XOoZqCm4C3BTNBV yYA0Q9X2mkGiT2l0hRPQ9Q22KDAYQpRtTDb8zCYaW+jXsD7DN2vUes36/JzT4xMu1yuRvc6a6ais xZQ5E4fgiT4QCThToItEF1d4NUDIzfX5PBPwhUMFjTM1VhX5cdGUSkm8hNIUYjyVpJFSSd0/CESO uq5p+g4/CNIjBQFypJTE28pIvJFOY3ufTzSNoA01IgKr4u4+qkg9LXBVTTIHFNMFy1v3KOdzcaWd RZVZmsNOhd0st5QH9WdWSIwZ/bx3jVTe4/azbSfIjNECmPJApF9tSMTtQAkRn2Ie8As+aIKopGc8 qkhkyBNwdQzjQLS2qOtQmQQjGnuEpTIiFLf/et130tsJHt18cQzy67Dbz//ie7XbhtEFxjq0LTDO ivGVQjnHtiapctVL7Wb82pmOijG+YCb2/mAv8fUi/Ov4HHAF5bctuNg/bUrZv+KLDPE9LvWC1uLv d+mXPvsyfO/4/GiU/dvLkPMvu14+W3vXfrC0P8jrNHr79yAp+JddrzJHesVf/LUGeRF6cP+Kr4AC /bmJ31dh+D7XX2yQ/Rfff5MXDfhqw8vLJ/RVK+RV///XGuRFGh7f5/31Xgn2RWx2r9ohrl//DxaS SUGCkqjuAAAAAElFTkSuQmCC "
       height="351.52798"
       width="351.52798" />
  </g>
  <g
     inkscape:label="Layer 1"
     inkscape:groupmode="layer"
     id="layer1"
     transform="translate(-339.5,-377.86218)">
    <g
       id="g3914"
       transform="translate(14.5,-4.50641)"
       style="stroke-width:6;stroke-miterlimit:4;stroke-dasharray:none">
      <path
         sodipodi:nodetypes="cccccccccccccc"
         inkscape:connector-curvature="0"
         style="fill:url(#linearGradient3921);fill-opacity:1;stroke:#000000;stroke-width:6;stroke-linecap:butt;stroke-linejoin:miter;stroke-opacity:1;stroke-miterlimit:4;stroke-dasharray:none"
         d="m 340,522.36218 c 0,25 50,30 50,30 l -45,85 0,30 90,0 35,-60 35,60 90,0 0,-30 -45,-85 c 0,0 50,-5 50,-30 l 0,-30 -260,0 z"
         id="path3775" />
      <path
         inkscape:connector-curvature="0"
         id="path2998"
         d="m 470,387.375 c -40,0 -40,55 -40,55 0,0 -90,15 -90,50 0,25 50,30 50,30 l -45,95 0,20 90,0 35,-60 35,60 90,0 0,-20 -45,-95 c 0,0 50,-5 50,-30 0,-35 -90,-50 -90,-50 0,0 0,-55 -40,-55 z"
         style="fill:url(#linearGradient3923);fill-opacity:1;stroke:#000000;stroke-width:6;stroke-linecap:butt;stroke-linejoin:miter;stroke-opacity:1;stroke-miterlimit:4;stroke-dasharray:none" />
      <path
         inkscape:connector-curvature="0"
         id="path3777"
         d="m 435,667.36218 0,-30"
         style="fill:none;stroke:#000000;stroke-width:6;stroke-linecap:butt;stroke-linejoin:miter;stroke-opacity:1;stroke-miterlimit:4;stroke-dasharray:none" />
      <path
         inkscape:connector-curvature="0"
         id="path3779"
         d="m 505,667.36218 0,-30"
         style="fill:none;stroke:#000000;stroke-width:6;stroke-linecap:butt;stroke-linejoin:miter;stroke-opacity:1;stroke-miterlimit:4;stroke-dasharray:none" />
      <path
         inkscape:connector-curvature="0"
         id="path3781"
         d="m 470,607.36218 0,-30"
         style="fill:none;stroke:#000000;stroke-width:6;stroke-linecap:butt;stroke-linejoin:miter;stroke-opacity:1;stroke-miterlimit:4;stroke-dasharray:none" />
    </g>
  </g>
</svg>
